/home/konrad/Tools/Libero/Libero_v12.2/SynplifyPro/bin/syn_nfilter  -link  -top  work.Hello_World  -multisrs  /home/konrad/Workspace/FPGA/Private/Hello_world/Hello_World/synthesis/synwork/Hello_World_comp.srs  -osyn  /home/konrad/Workspace/FPGA/Private/Hello_world/Hello_World/synthesis/synwork/Hello_World_mult.srs  -log  /home/konrad/Workspace/FPGA/Private/Hello_world/Hello_World/synthesis/synlog/Hello_World_multi_srs_gen.srr 
relcom:../../../../../../../Tools/Libero/Libero_v12.2/SynplifyPro/bin/syn_nfilter -link -top work.Hello_World -multisrs ../synwork/Hello_World_comp.srs -osyn ../synwork/Hello_World_mult.srs -log ../synlog/Hello_World_multi_srs_gen.srr
rc:0 success:1 runtime:0
file:../synwork/Hello_World_comp.srs|io:i|time:1587421735|size:9877|exec:0|csum:B10A616EE106D50E53F2E62BB643B187
file:../synwork/Hello_World_mult.srs|io:o|time:1587421736|size:2643|exec:0|csum:
file:../synlog/Hello_World_multi_srs_gen.srr|io:o|time:1587421736|size:1272|exec:0|csum:
file:../../../../../../../Tools/Libero/Libero_v12.2/SynplifyPro/linux_a_64/syn_nfilter|io:i|time:1562074532|size:12202632|exec:1|csum:2557A30745327FAE79597CA370AC111A
file:../../../../../../../Tools/Libero/Libero_v12.2/SynplifyPro/bin/syn_nfilter|io:i|time:1562074523|size:368|exec:1|csum:004E4455B64BA10AD6A92FB2301610E0
